%YAML 1.1
%TAG !u! tag:unity3d.com,2011:
--- !u!1001 &5171767010883380552
PrefabInstance:
  m_ObjectHideFlags: 0
  serializedVersion: 2
  m_Modification:
    m_TransformParent: {fileID: 0}
    m_Modifications:
    - target: {fileID: -8679921383154817045, guid: d8fe0bd446afb584f90961710dd5e403,
        type: 3}
      propertyPath: m_RootOrder
      value: 0
      objectReference: {fileID: 0}
    - target: {fileID: -8679921383154817045, guid: d8fe0bd446afb584f90961710dd5e403,
        type: 3}
      propertyPath: m_LocalPosition.x
      value: 0
      objectReference: {fileID: 0}
    - target: {fileID: -8679921383154817045, guid: d8fe0bd446afb584f90961710dd5e403,
        type: 3}
      propertyPath: m_LocalPosition.y
      value: 0
      objectReference: {fileID: 0}
    - target: {fileID: -8679921383154817045, guid: d8fe0bd446afb584f90961710dd5e403,
        type: 3}
      propertyPath: m_LocalPosition.z
      value: 0
      objectReference: {fileID: 0}
    - target: {fileID: -8679921383154817045, guid: d8fe0bd446afb584f90961710dd5e403,
        type: 3}
      propertyPath: m_LocalRotation.w
      value: 1
      objectReference: {fileID: 0}
    - target: {fileID: -8679921383154817045, guid: d8fe0bd446afb584f90961710dd5e403,
        type: 3}
      propertyPath: m_LocalRotation.x
      value: 0.00000008146034
      objectReference: {fileID: 0}
    - target: {fileID: -8679921383154817045, guid: d8fe0bd446afb584f90961710dd5e403,
        type: 3}
      propertyPath: m_LocalRotation.y
      value: 0
      objectReference: {fileID: 0}
    - target: {fileID: -8679921383154817045, guid: d8fe0bd446afb584f90961710dd5e403,
        type: 3}
      propertyPath: m_LocalRotation.z
      value: -0
      objectReference: {fileID: 0}
    - target: {fileID: -8679921383154817045, guid: d8fe0bd446afb584f90961710dd5e403,
        type: 3}
      propertyPath: m_LocalEulerAnglesHint.x
      value: 0
      objectReference: {fileID: 0}
    - target: {fileID: -8679921383154817045, guid: d8fe0bd446afb584f90961710dd5e403,
        type: 3}
      propertyPath: m_LocalEulerAnglesHint.y
      value: 0
      objectReference: {fileID: 0}
    - target: {fileID: -8679921383154817045, guid: d8fe0bd446afb584f90961710dd5e403,
        type: 3}
      propertyPath: m_LocalEulerAnglesHint.z
      value: 0
      objectReference: {fileID: 0}
    - target: {fileID: -7511558181221131132, guid: d8fe0bd446afb584f90961710dd5e403,
        type: 3}
      propertyPath: m_Materials.Array.data[0]
      value: 
      objectReference: {fileID: 2100000, guid: 331be8adbbee83c49b2d4988b0b5201e, type: 2}
    - target: {fileID: 919132149155446097, guid: d8fe0bd446afb584f90961710dd5e403,
        type: 3}
      propertyPath: m_Name
      value: Camp_fire_02
      objectReference: {fileID: 0}
    m_RemovedComponents: []
  m_SourcePrefab: {fileID: 100100000, guid: d8fe0bd446afb584f90961710dd5e403, type: 3}
--- !u!1 &5405629483992782873 stripped
GameObject:
  m_CorrespondingSourceObject: {fileID: 919132149155446097, guid: d8fe0bd446afb584f90961710dd5e403,
    type: 3}
  m_PrefabInstance: {fileID: 5171767010883380552}
  m_PrefabAsset: {fileID: 0}
--- !u!65 &8736621044279552612
BoxCollider:
  m_ObjectHideFlags: 0
  m_CorrespondingSourceObject: {fileID: 0}
  m_PrefabInstance: {fileID: 0}
  m_PrefabAsset: {fileID: 0}
  m_GameObject: {fileID: 5405629483992782873}
  m_Material: {fileID: 0}
  m_IsTrigger: 0
  m_Enabled: 1
  serializedVersion: 2
  m_Size: {x: 1.185328, y: 1.4117963, z: 1.1936177}
  m_Center: {x: 0.0016022921, y: 0.7001817, z: 0.00010627508}
