%YAML 1.1
%TAG !u! tag:unity3d.com,2011:
--- !u!1001 &5122441124556651305
PrefabInstance:
  m_ObjectHideFlags: 0
  serializedVersion: 2
  m_Modification:
    m_TransformParent: {fileID: 0}
    m_Modifications:
    - target: {fileID: -8679921383154817045, guid: 62e7d91d4e600f24e86edf1a44e5d048,
        type: 3}
      propertyPath: m_RootOrder
      value: 0
      objectReference: {fileID: 0}
    - target: {fileID: -8679921383154817045, guid: 62e7d91d4e600f24e86edf1a44e5d048,
        type: 3}
      propertyPath: m_LocalPosition.x
      value: -0
      objectReference: {fileID: 0}
    - target: {fileID: -8679921383154817045, guid: 62e7d91d4e600f24e86edf1a44e5d048,
        type: 3}
      propertyPath: m_LocalPosition.y
      value: 0
      objectReference: {fileID: 0}
    - target: {fileID: -8679921383154817045, guid: 62e7d91d4e600f24e86edf1a44e5d048,
        type: 3}
      propertyPath: m_LocalPosition.z
      value: 0
      objectReference: {fileID: 0}
    - target: {fileID: -8679921383154817045, guid: 62e7d91d4e600f24e86edf1a44e5d048,
        type: 3}
      propertyPath: m_LocalRotation.w
      value: 1
      objectReference: {fileID: 0}
    - target: {fileID: -8679921383154817045, guid: 62e7d91d4e600f24e86edf1a44e5d048,
        type: 3}
      propertyPath: m_LocalRotation.x
      value: 0.000000021855694
      objectReference: {fileID: 0}
    - target: {fileID: -8679921383154817045, guid: 62e7d91d4e600f24e86edf1a44e5d048,
        type: 3}
      propertyPath: m_LocalRotation.y
      value: 0
      objectReference: {fileID: 0}
    - target: {fileID: -8679921383154817045, guid: 62e7d91d4e600f24e86edf1a44e5d048,
        type: 3}
      propertyPath: m_LocalRotation.z
      value: -0
      objectReference: {fileID: 0}
    - target: {fileID: -8679921383154817045, guid: 62e7d91d4e600f24e86edf1a44e5d048,
        type: 3}
      propertyPath: m_LocalEulerAnglesHint.x
      value: 0
      objectReference: {fileID: 0}
    - target: {fileID: -8679921383154817045, guid: 62e7d91d4e600f24e86edf1a44e5d048,
        type: 3}
      propertyPath: m_LocalEulerAnglesHint.y
      value: 0
      objectReference: {fileID: 0}
    - target: {fileID: -8679921383154817045, guid: 62e7d91d4e600f24e86edf1a44e5d048,
        type: 3}
      propertyPath: m_LocalEulerAnglesHint.z
      value: 0
      objectReference: {fileID: 0}
    - target: {fileID: -7511558181221131132, guid: 62e7d91d4e600f24e86edf1a44e5d048,
        type: 3}
      propertyPath: m_Materials.Array.data[0]
      value: 
      objectReference: {fileID: 2100000, guid: cfca577aa1be4b24eafb86690219418b, type: 2}
    - target: {fileID: 919132149155446097, guid: 62e7d91d4e600f24e86edf1a44e5d048,
        type: 3}
      propertyPath: m_Name
      value: Coussins_C Variant
      objectReference: {fileID: 0}
    m_RemovedComponents: []
  m_SourcePrefab: {fileID: 100100000, guid: 62e7d91d4e600f24e86edf1a44e5d048, type: 3}
--- !u!1 &5465110184810514040 stripped
GameObject:
  m_CorrespondingSourceObject: {fileID: 919132149155446097, guid: 62e7d91d4e600f24e86edf1a44e5d048,
    type: 3}
  m_PrefabInstance: {fileID: 5122441124556651305}
  m_PrefabAsset: {fileID: 0}
--- !u!65 &5519454425526534861
BoxCollider:
  m_ObjectHideFlags: 0
  m_CorrespondingSourceObject: {fileID: 0}
  m_PrefabInstance: {fileID: 0}
  m_PrefabAsset: {fileID: 0}
  m_GameObject: {fileID: 5465110184810514040}
  m_Material: {fileID: 0}
  m_IsTrigger: 0
  m_Enabled: 1
  serializedVersion: 2
  m_Size: {x: 0.9763844, y: 0.2439576, z: 0.98682374}
  m_Center: {x: -0.0000020563602, y: 0.12543336, z: 0}
