%YAML 1.1
%TAG !u! tag:unity3d.com,2011:
--- !u!1001 &5030012302832332204
PrefabInstance:
  m_ObjectHideFlags: 0
  serializedVersion: 2
  m_Modification:
    m_TransformParent: {fileID: 0}
    m_Modifications:
    - target: {fileID: -8679921383154817045, guid: f2d9be1b031fc0c4fb701c1accacbeeb,
        type: 3}
      propertyPath: m_RootOrder
      value: 0
      objectReference: {fileID: 0}
    - target: {fileID: -8679921383154817045, guid: f2d9be1b031fc0c4fb701c1accacbeeb,
        type: 3}
      propertyPath: m_LocalPosition.x
      value: -0
      objectReference: {fileID: 0}
    - target: {fileID: -8679921383154817045, guid: f2d9be1b031fc0c4fb701c1accacbeeb,
        type: 3}
      propertyPath: m_LocalPosition.y
      value: 0
      objectReference: {fileID: 0}
    - target: {fileID: -8679921383154817045, guid: f2d9be1b031fc0c4fb701c1accacbeeb,
        type: 3}
      propertyPath: m_LocalPosition.z
      value: 0
      objectReference: {fileID: 0}
    - target: {fileID: -8679921383154817045, guid: f2d9be1b031fc0c4fb701c1accacbeeb,
        type: 3}
      propertyPath: m_LocalRotation.w
      value: 1
      objectReference: {fileID: 0}
    - target: {fileID: -8679921383154817045, guid: f2d9be1b031fc0c4fb701c1accacbeeb,
        type: 3}
      propertyPath: m_LocalRotation.x
      value: 0.000000021855694
      objectReference: {fileID: 0}
    - target: {fileID: -8679921383154817045, guid: f2d9be1b031fc0c4fb701c1accacbeeb,
        type: 3}
      propertyPath: m_LocalRotation.y
      value: 0
      objectReference: {fileID: 0}
    - target: {fileID: -8679921383154817045, guid: f2d9be1b031fc0c4fb701c1accacbeeb,
        type: 3}
      propertyPath: m_LocalRotation.z
      value: -0
      objectReference: {fileID: 0}
    - target: {fileID: -8679921383154817045, guid: f2d9be1b031fc0c4fb701c1accacbeeb,
        type: 3}
      propertyPath: m_LocalEulerAnglesHint.x
      value: 0
      objectReference: {fileID: 0}
    - target: {fileID: -8679921383154817045, guid: f2d9be1b031fc0c4fb701c1accacbeeb,
        type: 3}
      propertyPath: m_LocalEulerAnglesHint.y
      value: 0
      objectReference: {fileID: 0}
    - target: {fileID: -8679921383154817045, guid: f2d9be1b031fc0c4fb701c1accacbeeb,
        type: 3}
      propertyPath: m_LocalEulerAnglesHint.z
      value: 0
      objectReference: {fileID: 0}
    - target: {fileID: -7511558181221131132, guid: f2d9be1b031fc0c4fb701c1accacbeeb,
        type: 3}
      propertyPath: m_Materials.Array.data[0]
      value: 
      objectReference: {fileID: 2100000, guid: d066cf0bb227561478d75bd9c1099e90, type: 2}
    - target: {fileID: 919132149155446097, guid: f2d9be1b031fc0c4fb701c1accacbeeb,
        type: 3}
      propertyPath: m_Name
      value: SM_BS_HostChair_B
      objectReference: {fileID: 0}
    m_RemovedComponents: []
  m_SourcePrefab: {fileID: 100100000, guid: f2d9be1b031fc0c4fb701c1accacbeeb, type: 3}
