%YAML 1.1
%TAG !u! tag:unity3d.com,2011:
--- !u!1001 &4621452153653053813
PrefabInstance:
  m_ObjectHideFlags: 0
  serializedVersion: 2
  m_Modification:
    m_TransformParent: {fileID: 0}
    m_Modifications:
    - target: {fileID: -8679921383154817045, guid: 371de92b3af6ef047bff15d9ef91d830,
        type: 3}
      propertyPath: m_RootOrder
      value: 0
      objectReference: {fileID: 0}
    - target: {fileID: -8679921383154817045, guid: 371de92b3af6ef047bff15d9ef91d830,
        type: 3}
      propertyPath: m_LocalPosition.x
      value: -0
      objectReference: {fileID: 0}
    - target: {fileID: -8679921383154817045, guid: 371de92b3af6ef047bff15d9ef91d830,
        type: 3}
      propertyPath: m_LocalPosition.y
      value: 0
      objectReference: {fileID: 0}
    - target: {fileID: -8679921383154817045, guid: 371de92b3af6ef047bff15d9ef91d830,
        type: 3}
      propertyPath: m_LocalPosition.z
      value: 0
      objectReference: {fileID: 0}
    - target: {fileID: -8679921383154817045, guid: 371de92b3af6ef047bff15d9ef91d830,
        type: 3}
      propertyPath: m_LocalRotation.w
      value: 1
      objectReference: {fileID: 0}
    - target: {fileID: -8679921383154817045, guid: 371de92b3af6ef047bff15d9ef91d830,
        type: 3}
      propertyPath: m_LocalRotation.x
      value: 0.000000021855694
      objectReference: {fileID: 0}
    - target: {fileID: -8679921383154817045, guid: 371de92b3af6ef047bff15d9ef91d830,
        type: 3}
      propertyPath: m_LocalRotation.y
      value: 0
      objectReference: {fileID: 0}
    - target: {fileID: -8679921383154817045, guid: 371de92b3af6ef047bff15d9ef91d830,
        type: 3}
      propertyPath: m_LocalRotation.z
      value: -0
      objectReference: {fileID: 0}
    - target: {fileID: -8679921383154817045, guid: 371de92b3af6ef047bff15d9ef91d830,
        type: 3}
      propertyPath: m_LocalEulerAnglesHint.x
      value: 0
      objectReference: {fileID: 0}
    - target: {fileID: -8679921383154817045, guid: 371de92b3af6ef047bff15d9ef91d830,
        type: 3}
      propertyPath: m_LocalEulerAnglesHint.y
      value: 0
      objectReference: {fileID: 0}
    - target: {fileID: -8679921383154817045, guid: 371de92b3af6ef047bff15d9ef91d830,
        type: 3}
      propertyPath: m_LocalEulerAnglesHint.z
      value: 0
      objectReference: {fileID: 0}
    - target: {fileID: -7511558181221131132, guid: 371de92b3af6ef047bff15d9ef91d830,
        type: 3}
      propertyPath: m_Materials.Array.data[0]
      value: 
      objectReference: {fileID: 2100000, guid: e8fb41d3be89c7e43aaebc587387c4f5, type: 2}
    - target: {fileID: 919132149155446097, guid: 371de92b3af6ef047bff15d9ef91d830,
        type: 3}
      propertyPath: m_Name
      value: SM_TEA_TABLE_A
      objectReference: {fileID: 0}
    m_RemovedComponents: []
  m_SourcePrefab: {fileID: 100100000, guid: 371de92b3af6ef047bff15d9ef91d830, type: 3}
--- !u!1 &5540513783605720100 stripped
GameObject:
  m_CorrespondingSourceObject: {fileID: 919132149155446097, guid: 371de92b3af6ef047bff15d9ef91d830,
    type: 3}
  m_PrefabInstance: {fileID: 4621452153653053813}
  m_PrefabAsset: {fileID: 0}
--- !u!65 &4232590173772620644
BoxCollider:
  m_ObjectHideFlags: 0
  m_CorrespondingSourceObject: {fileID: 0}
  m_PrefabInstance: {fileID: 0}
  m_PrefabAsset: {fileID: 0}
  m_GameObject: {fileID: 5540513783605720100}
  m_Material: {fileID: 0}
  m_IsTrigger: 0
  m_Enabled: 1
  serializedVersion: 2
  m_Size: {x: 0.588, y: 0.54, z: 0.509223}
  m_Center: {x: 0, y: 0.27000007, z: 0.000000029802322}
